{"_id":{"$oid":"5706117eeb6c957e2cd500d7"},"id":"yW7r6v7WY","menu_title":"Dashboard","menu_uri":"/dashboard","menu_parent_id":"0","status":1,"icon":"fa-archive","order_point":1000}
{"_id":{"$oid":"570611d5f1a254272db44031"},"id":"EyLl@@y1W","menu_title":"System","menu_uri":"#","menu_parent_id":"0","status":1,"icon":"fa-archive","order_point":1000}
{"_id":{"$oid":"570611e6f1a254272db44033"},"id":"N1w@bZ11b","menu_title":"User","menu_uri":"/manage/user","menu_parent_id":"EyLl@@y1W","status":1,"icon":"fa-user","order_point":1000}
{"_id":{"$oid":"570611f6f1a254272db44035"},"id":"NyUzbZyy@","menu_title":"Menu","menu_uri":"/manage/menu","menu_parent_id":"EyLl@@y1W","status":1,"icon":"fa-list","order_point":1000}
{"_id":{"$oid":"57061201f1a254272db44037"},"id":"EJf7bW1y@","menu_title":"Group","menu_uri":"/manage/group","menu_parent_id":"EyLl@@y1W","status":1,"icon":"fa-archive","order_point":1000}
{"_id":{"$oid":"5706121af1a254272db44039"},"id":"4JsE@Zk1Z","menu_title":"Tag Management","menu_uri":"/manage/label-tag","menu_parent_id":"EyLl@@y1W","status":1,"icon":"fa-archive","order_point":2001}
{"_id":{"$oid":"5706126af1a254272db4403b"},"id":"V1otb@1J@","menu_title":"Content Type","menu_uri":"/manage/content-type","menu_parent_id":"EyLl@@y1W","status":1,"icon":"fa-archive","order_point":2009}
{"_id":{"$oid":"57061285f1a254272db4403d"},"id":"EyIjZ@y1Z","menu_title":"Backup \u0026 Restore","menu_uri":"/manage/backup-restore","menu_parent_id":"EyLl@@y1W","status":1,"icon":"fa-archive","order_point":2010}
{"_id":{"$oid":"5706129cf1a254272db4403f"},"id":"4k6hW@k1b","menu_title":"Content","menu_uri":"/content","menu_parent_id":"0","status":1,"icon":"fa-archive","order_point":1001}
{"_id":{"$oid":"570612d3f1a254272db44041"},"id":"EyVgzW11Z","menu_title":"Report \u0026 Statistic","menu_uri":"#","menu_parent_id":"0","status":1,"icon":"fa-archive","order_point":1000}
{"_id":{"$oid":"570649003110898b297a0b12"},"id":"DWYHqkBBY","menu_title":"Logs Error","menu_uri":"/manage/logs/error","menu_parent_id":"EyVgzW11Z","status":1,"icon":"fa-ellipsis-h","order_point":100}
{"_id":{"$oid":"57071f881f34e410118b289a"},"id":"fWxiVGtWG","menu_title":"Manage Site","menu_uri":"/manage/site","menu_parent_id":"EyLl@@y1W","status":1,"icon":"fa-android","order_point":1000}
{"_id":{"$oid":"570cdb6e579a782f1a050b67"},"id":"k33X2aP3G","menu_title":"URL Management","menu_uri":"/manage/uri","menu_parent_id":"0","status":1,"icon":"fa-bolt","order_point":1000}
{"_id":{"$oid":"570cddaf579a782f1a050b69"},"id":"y36Mz8P3v","menu_title":"Layout Management","menu_uri":"/manage/layout","menu_parent_id":"yWH@UJAIY","status":1,"icon":"fa-tasks","order_point":1000}
{"_id":{"$oid":"5722e45499034f8606ddd5c5"},"id":"y3y$HR16G","menu_title":"Widget","menu_uri":"/widget","menu_parent_id":"yWH@UJAIY","status":1,"icon":"fa-columns","order_point":1000}
{"_id":{"$oid":"572473f2349081121810a932"},"id":"yWH@UJAIY","menu_title":"Theme","menu_uri":"#","menu_parent_id":"0","status":1,"icon":"fa-desktop","order_point":1000}
{"_id":{"$oid":"572474cf82f1ce3118e729e3"},"id":"yB6tfg8IG","menu_title":"Widget View","menu_uri":"/manage/widget/view","menu_parent_id":"EyLl@@y1W","status":1,"icon":"fa-adn","order_point":1000}
{"_id":{"$oid":"57257350b39eb32205751fdb"},"id":"DWeq@JMIv","menu_title":"Css Manager","menu_uri":"/manage/css","menu_parent_id":"yWH@UJAIY","status":1,"icon":"fa-css3","order_point":1000}
{"_id":{"$oid":"5726d52db0f1dfaa09092e2d"},"id":"DBRFfA7Ge","menu_title":"Menu Navigasi","menu_uri":"/manage/navigasi","menu_parent_id":"yWH@UJAIY","status":1,"icon":"fa-list-alt","order_point":1000}
{"_id":{"$oid":"57272d8c9a1cda411ca8c4fc"},"id":"Nyas3flZW","menu_title":"Site","menu_uri":"/manage/site","menu_parent_id":"EyLl@@y1W","status":1,"icon":"fa-sitemap","order_point":1000}
{"_id":{"$oid":"57302f8518a4a4d513f6fe01"},"id":"FBV43L8e","menu_title":"JS Editor","menu_uri":"/manage/js","menu_parent_id":"yWH@UJAIY","status":1,"icon":"fa-jsfiddle","order_point":1000}
{"_id":{"$oid":"573334f49661cc7f30386d9e"},"id":"97ZtPLm@","menu_title":"Attach Manager","menu_uri":"/manage/attach","menu_parent_id":"yWH@UJAIY","status":1,"icon":"fa-external-link-square","order_point":1000}
{"_id":{"$oid":"573378735c8509385ff56d8f"},"id":"BJoOuxZf","menu_title":"Activity User","menu_uri":"/manage/activity","menu_parent_id":"EyVgzW11Z","status":1,"icon":"fa-car","order_point":1000}
