{"_id":"DWOCKZeGe","name":"Item Teaser List Unlimited","mixin":"item_teaser_list_unlimited","field":["thumbnail","title","time","describ"],"time_added":{"$date":"2016-05-03T08:49:21.000Z"}}
{"_id":"Ey68i1kZW","name":"Detail Post","mixin":"item_detail","field":["thumbnail","title","time","describ"],"time_added":{"$date":"2016-05-01T05:53:16.000Z"}}
{"_id":"f76J4BDvG","name":"Big Thumbnail List","mixin":"list_thumbnail_big","field":["thumbnail","title"],"time_added":{"$date":"2016-05-05T00:46:07.000Z"}}
{"_id":"fWW9kKA6G","name":"Item Teaser List","mixin":"item_teaser_list","field":["thumbnail","title","time","describ"],"time_added":{"$date":"2016-04-30T02:04:30.000Z"}}
{"_id":"k3@Sfg8IY","name":"Item Link List","mixin":"link_list","field":["text"],"time_added":{"$date":"2016-04-30T02:06:25.000Z"}}
{"_id":"k7Fy1nvee","name":"Carousel","mixin":"carousel","field":["image","title"],"time_added":{"$date":"2016-05-03T01:06:44.000Z"}}
{"_id":"y3AVfJamv","name":"Thumbnail Lists","mixin":"item_thumbnail","field":["thumbnail","title"],"time_added":{"$date":"2016-04-30T02:07:08.000Z"}}
